solid Search Arena
facet normal 0.0 0.0 -1.0
   outer loop
      vertex -12.5 7.75 0.0
      vertex -14.3880996018147 -9.9 0.0
      vertex -14.5 -10.0 0.0
   endloop
endfacet
facet normal 0.0 0.0 -1.0
   outer loop
      vertex -14.3880996018147 -9.9 0.0
      vertex -12.5 7.75 0.0
      vertex -12.4080417756881 7.67301320687316 0.0
   endloop
endfacet
facet normal 0.0 0.0 -1.0
   outer loop
      vertex -12.4080417756881 7.67301320687316 0.0
      vertex -12.5 7.75 0.0
      vertex -3.25 10.5 0.0
   endloop
endfacet
facet normal 0.0 0.0 -1.0
   outer loop
      vertex -12.4080417756881 7.67301320687316 0.0
      vertex -3.25 10.5 0.0
      vertex -3.24827825314295 10.3961861460082 0.0
   endloop
endfacet
facet normal 0.0 0.0 -1.0
   outer loop
      vertex -3.24827825314295 10.3961861460082 0.0
      vertex -3.25 10.5 0.0
      vertex 13.0 6.25 0.0
   endloop
endfacet
facet normal 0.0 0.0 -1.0
   outer loop
      vertex -3.24827825314295 10.3961861460082 0.0
      vertex 13.0 6.25 0.0
      vertex 12.9 6.17279029518621 0.0
   endloop
endfacet
facet normal 0.0 0.0 -1.0
   outer loop
      vertex 12.9 6.17279029518621 0.0
      vertex 13.0 6.25 0.0
      vertex 12.9 -8.29307470147446 0.0
   endloop
endfacet
facet normal 0.0 0.0 -1.0
   outer loop
      vertex -14.3880996018147 -9.9 0.0
      vertex -0.5 -10.0 0.0
      vertex -14.5 -10.0 0.0
   endloop
endfacet
facet normal 0.0 0.0 -1.0
   outer loop
      vertex -0.5 -10.0 0.0
      vertex -14.3880996018147 -9.9 0.0
      vertex -0.527385044148903 -9.9 0.0
   endloop
endfacet
facet normal 0.0 0.0 -1.0
   outer loop
      vertex -0.5 -10.0 0.0
      vertex -0.527385044148903 -9.9 0.0
      vertex 3.27573936674631 -7.64815001986468 0.0
   endloop
endfacet
facet normal 0.0 0.0 -1.0
   outer loop
      vertex -0.5 -10.0 0.0
      vertex 3.27573936674631 -7.64815001986468 0.0
      vertex 3.3 -7.75 0.0
   endloop
endfacet
facet normal 0.0 0.0 -1.0
   outer loop
      vertex 3.3 -7.75 0.0
      vertex 3.27573936674631 -7.64815001986468 0.0
      vertex 12.9 -8.29307470147446 0.0
   endloop
endfacet
facet normal 0.0 0.0 -1.0
   outer loop
      vertex 3.3 -7.75 0.0
      vertex 12.9 -8.29307470147446 0.0
      vertex 13.0 -8.4 0.0
   endloop
endfacet
facet normal 0.0 0.0 -1.0
   outer loop
      vertex 13.0 -8.4 0.0
      vertex 12.9 -8.29307470147446 0.0
      vertex 13.0 6.25 0.0
   endloop
endfacet
facet normal -0.0 -0.0 1.0
   outer loop
      vertex -0.5 -10.0 1.0
      vertex -14.3880996018147 -9.9 1.0
      vertex -14.5 -10.0 1.0
   endloop
endfacet
facet normal -0.0 -0.0 1.0
   outer loop
      vertex -14.3880996018147 -9.9 1.0
      vertex -0.5 -10.0 1.0
      vertex -0.527385044148903 -9.9 1.0
   endloop
endfacet
facet normal -0.0 -0.0 1.0
   outer loop
      vertex -0.527385044148903 -9.9 1.0
      vertex -0.5 -10.0 1.0
      vertex 3.27573936674631 -7.64815001986468 1.0
   endloop
endfacet
facet normal -0.0 -0.0 1.0
   outer loop
      vertex 3.27573936674631 -7.64815001986468 1.0
      vertex -0.5 -10.0 1.0
      vertex 3.3 -7.75 1.0
   endloop
endfacet
facet normal -0.0 -0.0 1.0
   outer loop
      vertex 3.27573936674631 -7.64815001986468 1.0
      vertex 3.3 -7.75 1.0
      vertex 12.9 -8.29307470147446 1.0
   endloop
endfacet
facet normal -0.0 -0.0 1.0
   outer loop
      vertex 12.9 -8.29307470147446 1.0
      vertex 3.3 -7.75 1.0
      vertex 13.0 -8.4 1.0
   endloop
endfacet
facet normal -0.0 -0.0 1.0
   outer loop
      vertex 12.9 -8.29307470147446 1.0
      vertex 13.0 -8.4 1.0
      vertex 12.9 6.17279029518621 1.0
   endloop
endfacet
facet normal -0.0 -0.0 1.0
   outer loop
      vertex -14.3880996018147 -9.9 1.0
      vertex -12.5 7.75 1.0
      vertex -14.5 -10.0 1.0
   endloop
endfacet
facet normal -0.0 -0.0 1.0
   outer loop
      vertex -12.5 7.75 1.0
      vertex -14.3880996018147 -9.9 1.0
      vertex -12.4080417756881 7.67301320687316 1.0
   endloop
endfacet
facet normal -0.0 -0.0 1.0
   outer loop
      vertex -12.5 7.75 1.0
      vertex -12.4080417756881 7.67301320687316 1.0
      vertex -3.25 10.5 1.0
   endloop
endfacet
facet normal -0.0 -0.0 1.0
   outer loop
      vertex -3.25 10.5 1.0
      vertex -12.4080417756881 7.67301320687316 1.0
      vertex -3.24827825314295 10.3961861460082 1.0
   endloop
endfacet
facet normal -0.0 -0.0 1.0
   outer loop
      vertex -3.25 10.5 1.0
      vertex -3.24827825314295 10.3961861460082 1.0
      vertex 13.0 6.25 1.0
   endloop
endfacet
facet normal -0.0 -0.0 1.0
   outer loop
      vertex 13.0 6.25 1.0
      vertex -3.24827825314295 10.3961861460082 1.0
      vertex 12.9 6.17279029518621 1.0
   endloop
endfacet
facet normal -0.0 -0.0 1.0
   outer loop
      vertex 13.0 6.25 1.0
      vertex 12.9 6.17279029518621 1.0
      vertex 13.0 -8.4 1.0
   endloop
endfacet
facet normal -0.993711865332524 0.111967534121975 0.0
   outer loop
      vertex -12.5 7.75 1.0
      vertex -14.5 -10.0 0.0
      vertex -14.5 -10.0 1.0
   endloop
endfacet
facet normal -0.993711865332524 0.111967534121975 0.0
   outer loop
      vertex -14.5 -10.0 0.0
      vertex -12.5 7.75 1.0
      vertex -12.5 7.75 0.0
   endloop
endfacet
facet normal -0.284970268082962 0.958536356279054 0.0
   outer loop
      vertex -12.5 7.75 1.0
      vertex -3.25 10.5 0.0
      vertex -12.5 7.75 0.0
   endloop
endfacet
facet normal -0.284970268082962 0.958536356279054 0.0
   outer loop
      vertex -3.25 10.5 0.0
      vertex -12.5 7.75 1.0
      vertex -3.25 10.5 1.0
   endloop
endfacet
facet normal 0.253027744393526 0.967459022681129 0.0
   outer loop
      vertex -3.25 10.5 1.0
      vertex 13.0 6.25 0.0
      vertex -3.25 10.5 0.0
   endloop
endfacet
facet normal 0.253027744393526 0.967459022681129 0.0
   outer loop
      vertex 13.0 6.25 0.0
      vertex -3.25 10.5 1.0
      vertex 13.0 6.25 1.0
   endloop
endfacet
facet normal 1.0 0.0 0.0
   outer loop
      vertex 13.0 6.25 0.0
      vertex 13.0 -8.4 1.0
      vertex 13.0 -8.4 0.0
   endloop
endfacet
facet normal 1.0 0.0 0.0
   outer loop
      vertex 13.0 -8.4 1.0
      vertex 13.0 6.25 0.0
      vertex 13.0 6.25 1.0
   endloop
endfacet
facet normal -0.0668603631481033 -0.997762342364004 -0.0
   outer loop
      vertex 13.0 -8.4 1.0
      vertex 3.3 -7.75 0.0
      vertex 13.0 -8.4 0.0
   endloop
endfacet
facet normal -0.0668603631481033 -0.997762342364004 -0.0
   outer loop
      vertex 3.3 -7.75 0.0
      vertex 13.0 -8.4 1.0
      vertex 3.3 -7.75 1.0
   endloop
endfacet
facet normal 0.509492006667771 -0.860475389038901 0.0
   outer loop
      vertex 3.3 -7.75 1.0
      vertex -0.5 -10.0 0.0
      vertex 3.3 -7.75 0.0
   endloop
endfacet
facet normal 0.509492006667771 -0.860475389038901 0.0
   outer loop
      vertex -0.5 -10.0 0.0
      vertex 3.3 -7.75 1.0
      vertex -0.5 -10.0 1.0
   endloop
endfacet
facet normal -0.0 -1.0 -0.0
   outer loop
      vertex -0.5 -10.0 1.0
      vertex -14.5 -10.0 0.0
      vertex -0.5 -10.0 0.0
   endloop
endfacet
facet normal -0.0 -1.0 -0.0
   outer loop
      vertex -14.5 -10.0 0.0
      vertex -0.5 -10.0 1.0
      vertex -14.5 -10.0 1.0
   endloop
endfacet
facet normal 1.04166551663529e-016 1.0 0.0
   outer loop
      vertex -14.3880996018147 -9.9 1.0
      vertex -0.527385044148903 -9.9 0.0
      vertex -14.3880996018147 -9.9 0.0
   endloop
endfacet
facet normal 1.04166551663529e-016 1.0 0.0
   outer loop
      vertex -0.527385044148903 -9.9 0.0
      vertex -14.3880996018147 -9.9 1.0
      vertex -0.527385044148903 -9.9 1.0
   endloop
endfacet
facet normal -0.50949200666777 0.860475389038902 0.0
   outer loop
      vertex -0.527385044148903 -9.9 1.0
      vertex 3.27573936674631 -7.64815001986468 0.0
      vertex -0.527385044148903 -9.9 0.0
   endloop
endfacet
facet normal -0.50949200666777 0.860475389038902 0.0
   outer loop
      vertex 3.27573936674631 -7.64815001986468 0.0
      vertex -0.527385044148903 -9.9 1.0
      vertex 3.27573936674631 -7.64815001986468 1.0
   endloop
endfacet
facet normal 0.0668603631481033 0.997762342364004 0.0
   outer loop
      vertex 3.27573936674631 -7.64815001986468 1.0
      vertex 12.9 -8.29307470147446 0.0
      vertex 3.27573936674631 -7.64815001986468 0.0
   endloop
endfacet
facet normal 0.0668603631481033 0.997762342364004 0.0
   outer loop
      vertex 12.9 -8.29307470147446 0.0
      vertex 3.27573936674631 -7.64815001986468 1.0
      vertex 12.9 -8.29307470147446 1.0
   endloop
endfacet
facet normal -1.0 0.0 0.0
   outer loop
      vertex 12.9 6.17279029518621 1.0
      vertex 12.9 -8.29307470147446 0.0
      vertex 12.9 -8.29307470147446 1.0
   endloop
endfacet
facet normal -1.0 0.0 0.0
   outer loop
      vertex 12.9 -8.29307470147446 0.0
      vertex 12.9 6.17279029518621 1.0
      vertex 12.9 6.17279029518621 0.0
   endloop
endfacet
facet normal -0.253027744393526 -0.967459022681129 -0.0
   outer loop
      vertex 12.9 6.17279029518621 1.0
      vertex -3.24827825314295 10.3961861460082 0.0
      vertex 12.9 6.17279029518621 0.0
   endloop
endfacet
facet normal -0.253027744393526 -0.967459022681129 -0.0
   outer loop
      vertex -3.24827825314295 10.3961861460082 0.0
      vertex 12.9 6.17279029518621 1.0
      vertex -3.24827825314295 10.3961861460082 1.0
   endloop
endfacet
facet normal 0.284970268082962 -0.958536356279054 0.0
   outer loop
      vertex -3.24827825314295 10.3961861460082 1.0
      vertex -12.4080417756881 7.67301320687316 0.0
      vertex -3.24827825314295 10.3961861460082 0.0
   endloop
endfacet
facet normal 0.284970268082962 -0.958536356279054 0.0
   outer loop
      vertex -12.4080417756881 7.67301320687316 0.0
      vertex -3.24827825314295 10.3961861460082 1.0
      vertex -12.4080417756881 7.67301320687316 1.0
   endloop
endfacet
facet normal 0.993711865332524 -0.111967534121975 0.0
   outer loop
      vertex -12.4080417756881 7.67301320687316 0.0
      vertex -14.3880996018147 -9.9 1.0
      vertex -14.3880996018147 -9.9 0.0
   endloop
endfacet
facet normal 0.993711865332524 -0.111967534121975 0.0
   outer loop
      vertex -14.3880996018147 -9.9 1.0
      vertex -12.4080417756881 7.67301320687316 0.0
      vertex -12.4080417756881 7.67301320687316 1.0
   endloop
endfacet
facet normal 0.0 0.0 -1.0
   outer loop
      vertex 0.228571428571428 0.0428571428571427 1.0
      vertex 0.139128709471437 -0.00186421669285313 1.0
      vertex 0.126351178171438 0.0236908459071445 1.0
   endloop
endfacet
facet normal 0.0 0.0 -1.0
   outer loop
      vertex 0.139128709471437 -0.00186421669285313 1.0
      vertex 0.228571428571428 0.0428571428571427 1.0
      vertex 0.163051374263698 -0.049709546277376 1.0
   endloop
endfacet
facet normal 0.0 0.0 -1.0
   outer loop
      vertex -6.33936137454391 4.4 1.0
      vertex -3.45 -1.7 1.0
      vertex -6.5 4.5 1.0
   endloop
endfacet
facet normal 0.0 0.0 -1.0
   outer loop
      vertex -3.45 -1.7 1.0
      vertex -6.33936137454391 4.4 1.0
      vertex -3.40209414561648 -1.57083830142625 1.0
   endloop
endfacet
facet normal 0.0 0.0 -1.0
   outer loop
      vertex -3.45 -1.7 1.0
      vertex -3.40209414561648 -1.57083830142625 1.0
      vertex 0.3 -0.1 1.0
   endloop
endfacet
facet normal 0.0 0.0 -1.0
   outer loop
      vertex 0.3 -0.1 1.0
      vertex -3.40209414561648 -1.57083830142625 1.0
      vertex 0.163051374263698 -0.049709546277376 1.0
   endloop
endfacet
facet normal 0.0 0.0 -1.0
   outer loop
      vertex 0.3 -0.1 1.0
      vertex 0.163051374263698 -0.049709546277376 1.0
      vertex 0.228571428571428 0.0428571428571427 1.0
   endloop
endfacet
facet normal 0.0 0.0 -1.0
   outer loop
      vertex -2.0 4.5 1.0
      vertex -6.33936137454391 4.4 1.0
      vertex -6.5 4.5 1.0
   endloop
endfacet
facet normal 0.0 0.0 -1.0
   outer loop
      vertex -6.33936137454391 4.4 1.0
      vertex -2.0 4.5 1.0
      vertex -2.06180339887499 4.4 1.0
   endloop
endfacet
facet normal 0.0 0.0 -1.0
   outer loop
      vertex -2.06180339887499 4.4 1.0
      vertex -2.0 4.5 1.0
      vertex 0.126351178171438 0.0236908459071445 1.0
   endloop
endfacet
facet normal 0.0 0.0 -1.0
   outer loop
      vertex 0.126351178171438 0.0236908459071445 1.0
      vertex -2.0 4.5 1.0
      vertex 0.228571428571428 0.0428571428571427 1.0
   endloop
endfacet
facet normal -0.392438685047783 0.919778168080743 -0.0
   outer loop
      vertex -3.45 -1.7 1.0
      vertex 0.3 -0.1 0.0
      vertex -3.45 -1.7 0.0
   endloop
endfacet
facet normal -0.392438685047783 0.919778168080743 -0.0
   outer loop
      vertex 0.3 -0.1 0.0
      vertex -3.45 -1.7 1.0
      vertex 0.3 -0.1 1.0
   endloop
endfacet
facet normal 0.897302982150508 0.441415176703073 0.0
   outer loop
      vertex -6.5 4.5 0.0
      vertex -3.45 -1.7 1.0
      vertex -3.45 -1.7 0.0
   endloop
endfacet
facet normal 0.897302982150508 0.441415176703073 0.0
   outer loop
      vertex -3.45 -1.7 1.0
      vertex -6.5 4.5 0.0
      vertex -6.5 4.5 1.0
   endloop
endfacet
facet normal 0.0 -1.0 -0.0
   outer loop
      vertex -2.0 4.5 1.0
      vertex -6.5 4.5 0.0
      vertex -2.0 4.5 0.0
   endloop
endfacet
facet normal 0.0 -1.0 -0.0
   outer loop
      vertex -6.5 4.5 0.0
      vertex -2.0 4.5 1.0
      vertex -6.5 4.5 1.0
   endloop
endfacet
facet normal -0.894427190999916 -0.447213595499958 -0.0
   outer loop
      vertex -2.0 4.5 1.0
      vertex 0.228571428571428 0.0428571428571427 0.0
      vertex 0.228571428571428 0.0428571428571427 1.0
   endloop
endfacet
facet normal -0.894427190999916 -0.447213595499958 -0.0
   outer loop
      vertex 0.228571428571428 0.0428571428571427 0.0
      vertex -2.0 4.5 1.0
      vertex -2.0 4.5 0.0
   endloop
endfacet
facet normal 0.894427190999916 0.447213595499958 -0.0
   outer loop
      vertex -2.06180339887499 4.4 0.0
      vertex 0.126351178171438 0.0236908459071445 1.0
      vertex 0.126351178171438 0.0236908459071445 0.0
   endloop
endfacet
facet normal 0.894427190999916 0.447213595499958 -0.0
   outer loop
      vertex 0.126351178171438 0.0236908459071445 1.0
      vertex -2.06180339887499 4.4 0.0
      vertex -2.06180339887499 4.4 1.0
   endloop
endfacet
facet normal 0.0 1.0 0.0
   outer loop
      vertex -6.33936137454391 4.4 1.0
      vertex -2.06180339887499 4.4 0.0
      vertex -6.33936137454391 4.4 0.0
   endloop
endfacet
facet normal 0.0 1.0 0.0
   outer loop
      vertex -2.06180339887499 4.4 0.0
      vertex -6.33936137454391 4.4 1.0
      vertex -2.06180339887499 4.4 1.0
   endloop
endfacet
facet normal -0.897302982150508 -0.441415176703073 -0.0
   outer loop
      vertex -6.33936137454391 4.4 1.0
      vertex -3.40209414561648 -1.57083830142625 0.0
      vertex -3.40209414561648 -1.57083830142625 1.0
   endloop
endfacet
facet normal -0.897302982150508 -0.441415176703073 -0.0
   outer loop
      vertex -3.40209414561648 -1.57083830142625 0.0
      vertex -6.33936137454391 4.4 1.0
      vertex -6.33936137454391 4.4 0.0
   endloop
endfacet
facet normal 0.392438685047783 -0.919778168080743 -0.0
   outer loop
      vertex 0.163051374263698 -0.049709546277376 1.0
      vertex -3.40209414561648 -1.57083830142625 0.0
      vertex 0.163051374263698 -0.049709546277376 0.0
   endloop
endfacet
facet normal 0.392438685047783 -0.919778168080743 -0.0
   outer loop
      vertex -3.40209414561648 -1.57083830142625 0.0
      vertex 0.163051374263698 -0.049709546277376 1.0
      vertex -3.40209414561648 -1.57083830142625 1.0
   endloop
endfacet
facet normal 0.894427190999916 0.447213595499958 0.0
   outer loop
      vertex 0.139128709471437 -0.00186421669285313 0.0
      vertex 0.163051374263698 -0.049709546277376 1.0
      vertex 0.163051374263698 -0.049709546277376 0.0
   endloop
endfacet
facet normal 0.894427190999916 0.447213595499958 0.0
   outer loop
      vertex 0.163051374263698 -0.049709546277376 1.0
      vertex 0.139128709471437 -0.00186421669285313 0.0
      vertex 0.139128709471437 -0.00186421669285313 1.0
   endloop
endfacet
facet normal 0.894427190999916 0.447213595499958 -0.0
   outer loop
      vertex 0.126351178171438 0.0236908459071445 0.0
      vertex 0.139128709471437 -0.00186421669285313 1.0
      vertex 0.139128709471437 -0.00186421669285313 0.0
   endloop
endfacet
facet normal 0.894427190999916 0.447213595499958 -0.0
   outer loop
      vertex 0.139128709471437 -0.00186421669285313 1.0
      vertex 0.126351178171438 0.0236908459071445 0.0
      vertex 0.126351178171438 0.0236908459071445 1.0
   endloop
endfacet
facet normal 0.184288535050185 -0.982872186934322 0.0
   outer loop
      vertex 0.228571428571428 0.0428571428571427 1.0
      vertex 0.126351178171438 0.0236908459071445 0.0
      vertex 0.228571428571428 0.0428571428571427 0.0
   endloop
endfacet
facet normal 0.184288535050185 -0.982872186934322 0.0
   outer loop
      vertex 0.126351178171438 0.0236908459071445 0.0
      vertex 0.228571428571428 0.0428571428571427 1.0
      vertex 0.126351178171438 0.0236908459071445 1.0
   endloop
endfacet
facet normal -0.894427190999916 -0.447213595499959 -0.0
   outer loop
      vertex 0.228571428571428 0.0428571428571427 1.0
      vertex 0.3 -0.1 0.0
      vertex 0.3 -0.1 1.0
   endloop
endfacet
facet normal -0.894427190999916 -0.447213595499959 -0.0
   outer loop
      vertex 0.3 -0.1 0.0
      vertex 0.228571428571428 0.0428571428571427 1.0
      vertex 0.228571428571428 0.0428571428571427 0.0
   endloop
endfacet
facet normal 0.0 0.0 -1.0
   outer loop
      vertex 4.0 0.75 1.0
      vertex 4.1 0.621922359359558 1.0
      vertex 4.0 -4.5 1.0
   endloop
endfacet
facet normal 0.0 0.0 -1.0
   outer loop
      vertex 4.1 0.621922359359558 1.0
      vertex 4.0 0.75 1.0
      vertex 8.6 -0.4 1.0
   endloop
endfacet
facet normal 0.0 0.0 -1.0
   outer loop
      vertex 4.1 0.621922359359558 1.0
      vertex 8.6 -0.4 1.0
      vertex 8.3923133015112 -0.451155966018242 1.0
   endloop
endfacet
facet normal 0.0 0.0 -1.0
   outer loop
      vertex 4.0 -4.5 1.0
      vertex 4.1 -4.27691347388692 1.0
      vertex 8.6 -0.4 1.0
   endloop
endfacet
facet normal 0.0 0.0 -1.0
   outer loop
      vertex 4.1 -4.27691347388692 1.0
      vertex 4.0 -4.5 1.0
      vertex 4.1 0.621922359359558 1.0
   endloop
endfacet
facet normal 0.0 0.0 -1.0
   outer loop
      vertex 8.6 -0.4 1.0
      vertex 4.1 -4.27691347388692 1.0
      vertex 8.3923133015112 -0.451155966018242 1.0
   endloop
endfacet
facet normal 1.0 -0.0 -0.0
   outer loop
      vertex 4.0 0.75 0.0
      vertex 4.0 -4.5 1.0
      vertex 4.0 -4.5 0.0
   endloop
endfacet
facet normal 1.0 -0.0 -0.0
   outer loop
      vertex 4.0 -4.5 1.0
      vertex 4.0 0.75 0.0
      vertex 4.0 0.75 1.0
   endloop
endfacet
facet normal -0.242535625036333 -0.970142500145332 -0.0
   outer loop
      vertex 8.6 -0.4 1.0
      vertex 4.0 0.75 0.0
      vertex 8.6 -0.4 0.0
   endloop
endfacet
facet normal -0.242535625036333 -0.970142500145332 -0.0
   outer loop
      vertex 4.0 0.75 0.0
      vertex 8.6 -0.4 1.0
      vertex 4.0 0.75 1.0
   endloop
endfacet
facet normal -0.665370524754448 0.746513271675722 -0.0
   outer loop
      vertex 4.0 -4.5 1.0
      vertex 8.6 -0.4 0.0
      vertex 4.0 -4.5 0.0
   endloop
endfacet
facet normal -0.665370524754448 0.746513271675722 -0.0
   outer loop
      vertex 8.6 -0.4 0.0
      vertex 4.0 -4.5 1.0
      vertex 8.6 -0.4 1.0
   endloop
endfacet
facet normal 0.665370524754448 -0.746513271675722 -0.0
   outer loop
      vertex 8.3923133015112 -0.451155966018242 1.0
      vertex 4.1 -4.27691347388692 0.0
      vertex 8.3923133015112 -0.451155966018242 0.0
   endloop
endfacet
facet normal 0.665370524754448 -0.746513271675722 -0.0
   outer loop
      vertex 4.1 -4.27691347388692 0.0
      vertex 8.3923133015112 -0.451155966018242 1.0
      vertex 4.1 -4.27691347388692 1.0
   endloop
endfacet
facet normal 0.242535625036333 0.970142500145332 0.0
   outer loop
      vertex 4.1 0.621922359359558 1.0
      vertex 8.3923133015112 -0.451155966018242 0.0
      vertex 4.1 0.621922359359558 0.0
   endloop
endfacet
facet normal 0.242535625036333 0.970142500145332 0.0
   outer loop
      vertex 8.3923133015112 -0.451155966018242 0.0
      vertex 4.1 0.621922359359558 1.0
      vertex 8.3923133015112 -0.451155966018242 1.0
   endloop
endfacet
facet normal -1.0 -0.0 -0.0
   outer loop
      vertex 4.1 0.621922359359558 1.0
      vertex 4.1 -4.27691347388692 0.0
      vertex 4.1 -4.27691347388692 1.0
   endloop
endfacet
facet normal -1.0 -0.0 -0.0
   outer loop
      vertex 4.1 -4.27691347388692 0.0
      vertex 4.1 0.621922359359558 1.0
      vertex 4.1 0.621922359359558 0.0
   endloop
endfacet
facet normal 0.0 0.0 -1.0
   outer loop
      vertex 8.3923133015112 -0.451155966018242 0.0
      vertex 4.1 -4.27691347388692 0.0
      vertex 4.1 0.621922359359558 0.0
   endloop
endfacet
facet normal 0.0 0.0 -1.0
   outer loop
      vertex -2.06180339887499 4.4 0.0
      vertex -3.40209414561648 -1.57083830142625 0.0
      vertex -6.33936137454391 4.4 0.0
   endloop
endfacet
facet normal 0.0 0.0 -1.0
   outer loop
      vertex -3.40209414561648 -1.57083830142625 0.0
      vertex -2.06180339887499 4.4 0.0
      vertex 0.126351178171438 0.0236908459071445 0.0
   endloop
endfacet
facet normal 0.0 0.0 -1.0
   outer loop
      vertex -3.40209414561648 -1.57083830142625 0.0
      vertex 0.126351178171438 0.0236908459071445 0.0
      vertex 0.139128709471437 -0.00186421669285313 0.0
   endloop
endfacet
facet normal 0.0 0.0 -1.0
   outer loop
      vertex -3.40209414561648 -1.57083830142625 0.0
      vertex 0.139128709471437 -0.00186421669285313 0.0
      vertex 0.163051374263698 -0.049709546277376 0.0
   endloop
endfacet
facet normal 0.0 0.0 -1.0
   outer loop
      vertex -3.24827825314295 10.3961861460082 0.0
      vertex -6.5 4.5 0.0
      vertex -12.4080417756881 7.67301320687316 0.0
   endloop
endfacet
facet normal 0.0 0.0 -1.0
   outer loop
      vertex -6.5 4.5 0.0
      vertex -3.24827825314295 10.3961861460082 0.0
      vertex -2.0 4.5 0.0
   endloop
endfacet
facet normal 0.0 0.0 -1.0
   outer loop
      vertex -2.0 4.5 0.0
      vertex -3.24827825314295 10.3961861460082 0.0
      vertex 12.9 6.17279029518621 0.0
   endloop
endfacet
facet normal 0.0 0.0 -1.0
   outer loop
      vertex -2.0 4.5 0.0
      vertex 12.9 6.17279029518621 0.0
      vertex 0.228571428571428 0.0428571428571427 0.0
   endloop
endfacet
facet normal 0.0 0.0 -1.0
   outer loop
      vertex 0.228571428571428 0.0428571428571427 0.0
      vertex 12.9 6.17279029518621 0.0
      vertex 0.3 -0.1 0.0
   endloop
endfacet
facet normal 0.0 0.0 -1.0
   outer loop
      vertex 0.3 -0.1 0.0
      vertex 12.9 6.17279029518621 0.0
      vertex 4.0 0.75 0.0
   endloop
endfacet
facet normal 0.0 0.0 -1.0
   outer loop
      vertex 0.3 -0.1 0.0
      vertex 4.0 0.75 0.0
      vertex 3.27573936674631 -7.64815001986468 0.0
   endloop
endfacet
facet normal 0.0 0.0 -1.0
   outer loop
      vertex 4.0 0.75 0.0
      vertex 12.9 6.17279029518621 0.0
      vertex 8.6 -0.4 0.0
   endloop
endfacet
facet normal 0.0 0.0 -1.0
   outer loop
      vertex 3.27573936674631 -7.64815001986468 0.0
      vertex 4.0 -4.5 0.0
      vertex 12.9 -8.29307470147446 0.0
   endloop
endfacet
facet normal 0.0 0.0 -1.0
   outer loop
      vertex 4.0 -4.5 0.0
      vertex 3.27573936674631 -7.64815001986468 0.0
      vertex 4.0 0.75 0.0
   endloop
endfacet
facet normal 0.0 0.0 -1.0
   outer loop
      vertex 12.9 -8.29307470147446 0.0
      vertex 4.0 -4.5 0.0
      vertex 8.6 -0.4 0.0
   endloop
endfacet
facet normal 0.0 0.0 -1.0
   outer loop
      vertex 12.9 -8.29307470147446 0.0
      vertex 8.6 -0.4 0.0
      vertex 12.9 6.17279029518621 0.0
   endloop
endfacet
facet normal 0.0 0.0 -1.0
   outer loop
      vertex -12.4080417756881 7.67301320687316 0.0
      vertex -0.527385044148903 -9.9 0.0
      vertex -14.3880996018147 -9.9 0.0
   endloop
endfacet
facet normal 0.0 0.0 -1.0
   outer loop
      vertex -0.527385044148903 -9.9 0.0
      vertex -12.4080417756881 7.67301320687316 0.0
      vertex -6.5 4.5 0.0
   endloop
endfacet
facet normal 0.0 0.0 -1.0
   outer loop
      vertex -0.527385044148903 -9.9 0.0
      vertex -6.5 4.5 0.0
      vertex -3.45 -1.7 0.0
   endloop
endfacet
facet normal 0.0 0.0 -1.0
   outer loop
      vertex -0.527385044148903 -9.9 0.0
      vertex -3.45 -1.7 0.0
      vertex 0.3 -0.1 0.0
   endloop
endfacet
facet normal 0.0 0.0 -1.0
   outer loop
      vertex -0.527385044148903 -9.9 0.0
      vertex 0.3 -0.1 0.0
      vertex 3.27573936674631 -7.64815001986468 0.0
   endloop
endfacet
endsolid Search Arena
